Data Analysis with R: Introduction of R Language | Muhammad Yaseen
…
Data Transformation

To explore the basic data manipulation we’ll use PakPC2017::PakPC2017Tehsil. This data frame contains the popualtion of all 543 tehsils of Pakistan. The data comes from Pakistan Bureau of Statistics, Population Census 2017, and is documented in ?PakPc2017Tehsil.

library(PakPC2017)
library(dplyr)
tehsil<-as_tibble(PakPC2017Tehsil)
tehsil

## # A tibble: 543 x 6
##    Province Division   District     Tehsil            Pop1998 Pop2017
##    <chr>    <chr>      <chr>        <chr>               <dbl>   <dbl>
##  1 Punjab   Bahawalpur Bahawalpur   Hasilpur           317513  456006
##  2 Punjab   Bahawalpur Bahawalpur   Khairpur Tamewali  183903  262628
##  3 Punjab   Bahawalpur Bahawalpur   Yazman             168950  262175
##  4 Punjab   Bahawalpur Bahawalpur   Ahmadpur East      718297 1078683
##  5 Punjab   Bahawalpur Bahawalpur   Bahawalpur City    419542  681696
##  6 Punjab   Bahawalpur Bahawalpur   Bahawalpur Saddar  387038  574950
##  7 Punjab   Bahawalpur Bahawalnagar Bahawalnagar       541553  815143
##  8 Punjab   Bahawalpur Bahawalnagar Chishtian          498270  691221
##  9 Punjab   Bahawalpur Bahawalnagar Haroonabad         381767  525598
## 10 Punjab   Bahawalpur Bahawalnagar Fort Abbas          92777  153444
## # ... with 533 more rows
…
newD<-filter(tehsil, grepl("F", tehsil$Division))
newd2<-filter(tehsil, grepl("abad", tehsil$Division))

If you want to save the result, you’ll need to use the assignment operator, <-:
fsdDivision<-filter(tehsil, Division == “Faisalabad”)

Comparisons

To use filtering effectively, you have to know how to select the observations that you want using the comparison operators. R provides the standard suite: >, >=, <, <=, != (not equal), and == (equal).

filter(tehsil, Pop2017 >= 1000000)

## # A tibble: 35 x 6
##    Province Division   District       Tehsil            Pop1998 Pop2017
##    <chr>    <chr>      <chr>          <chr>               <dbl>   <dbl>
##  1 Punjab   Bahawalpur Bahawalpur     Ahmadpur East      718297 1078683
##  2 Punjab   Bahawalpur Rahim Yar Khan Rahim Yar Khan     986614 1530330
##  3 Punjab   Bahawalpur Rahim Yar Khan Sadiqabad          771511 1264752
##  4 Punjab   Faisalabad Faisalabad     Faisalabad City   2140346 3237961
##  5 Punjab   Faisalabad Faisalabad     Faisalabad Saddar  924110 1465411
##  6 Punjab   Faisalabad Faisalabad     Jaranwala         1061846 1492276
##  7 Punjab   Faisalabad Jhang          Jhang              999130 1465472
##  8 Punjab   Sahiwal    Sahiwal        Sahiwal           1056132 1491553
##  9 Punjab   Sahiwal    Sahiwal        Chichawatni        787062 1026007
## 10 Punjab   Sahiwal    Okara          Okara              862364 1205655
## # ... with 25 more rows
…
## [1] NA

x<-c(NA,5,10)
is.na(x)

## [1]  TRUE FALSE FALSE

Arrange Rows with arrange()

The vale of x is NA
arrange() works similarly to filter() except that instead of selecting rows, it changes their order. It takes a data frame and a set of column names to order by.

arrange(tehsil, Pop2017)

## # A tibble: 543 x 6
##    Province    Division  District      Tehsil            Pop1998 Pop2017
##    <chr>       <chr>     <chr>         <chr>               <dbl>   <dbl>
##  1 Balochistan Sibi      Sibi          Sangan               3024    2665
##  2 Fata        Fata      Bajaur Agency Bar Chamer Kand      3247    2868
##  3 Balochistan Zhob      Zhob          Kashatoo             5165    5180
##  4 Balochistan Kalat     Kalat         Gazg                 3979    5726
##  5 Sindh       Karachi   Karachi West  Manora Cantonment   10008    5874
##  6 Balochistan Sibi      Sibi          Kotmandai            8057    7587
##  7 Balochistan Nasirabad Jhal Magsi    Mirpur              11562    9444
##  8 Balochistan Sibi      Harnai        Shahrig             17170    9454
##  9 Sindh       Hyderabad Sujawal       Kharo Chan Taluka    9956   10235
## 10 Balochistan Sibi      Dera Bugti    Sangsillah          13700   10265
## # ... with 533 more rows

Use desc() to reorder by a column in descending order.

Select Columns with select()

It’s not uncommon to get datasets with hundreds or even thousands of variables. In this case, the first challenge is often narrowing in on the variables you’re actually interested in. select() allows you to rapidly zoom in on a useful subset using operations based on the names of the variables.

select(tehsil,Province, Tehsil, Pop2017)

## # A tibble: 543 x 3
##    Province Tehsil            Pop2017
##    <chr>    <chr>               <dbl>
##  1 Punjab   Hasilpur           456006
##  2 Punjab   Khairpur Tamewali  262628
##  3 Punjab   Yazman             262175
##  4 Punjab   Ahmadpur East     1078683
##  5 Punjab   Bahawalpur City    681696
##  6 Punjab   Bahawalpur Saddar  574950
##  7 Punjab   Bahawalnagar       815143
##  8 Punjab   Chishtian          691221
##  9 Punjab   Haroonabad         525598
## 10 Punjab   Fort Abbas         153444
## # ... with 533 more rows

select(tehsil,-Province, -Tehsil, -Pop2017)

## # A tibble: 543 x 3
##    Division   District     Pop1998
##    <chr>      <chr>          <dbl>
##  1 Bahawalpur Bahawalpur    317513
##  2 Bahawalpur Bahawalpur    183903
##  3 Bahawalpur Bahawalpur    168950
##  4 Bahawalpur Bahawalpur    718297
##  5 Bahawalpur Bahawalpur    419542
##  6 Bahawalpur Bahawalpur    387038
##  7 Bahawalpur Bahawalnagar  541553
##  8 Bahawalpur Bahawalnagar  498270
##  9 Bahawalpur Bahawalnagar  381767
## 10 Bahawalpur Bahawalnagar   92777
## # ... with 533 more rows

select(tehsil,Pop2017, everything())

## # A tibble: 543 x 6
##    Pop2017 Province Division   District     Tehsil            Pop1998
##      <dbl> <chr>    <chr>      <chr>        <chr>               <dbl>
##  1  456006 Punjab   Bahawalpur Bahawalpur   Hasilpur           317513
##  2  262628 Punjab   Bahawalpur Bahawalpur   Khairpur Tamewali  183903
##  3  262175 Punjab   Bahawalpur Bahawalpur   Yazman             168950
##  4 1078683 Punjab   Bahawalpur Bahawalpur   Ahmadpur East      718297
##  5  681696 Punjab   Bahawalpur Bahawalpur   Bahawalpur City    419542
##  6  574950 Punjab   Bahawalpur Bahawalpur   Bahawalpur Saddar  387038
##  7  815143 Punjab   Bahawalpur Bahawalnagar Bahawalnagar       541553
##  8  691221 Punjab   Bahawalpur Bahawalnagar Chishtian          498270
##  9  525598 Punjab   Bahawalpur Bahawalnagar Haroonabad         381767
## 10  153444 Punjab   Bahawalpur Bahawalnagar Fort Abbas          92777
## # ... with 533 more rows

Add New Variables with mutate()

Besides selecting sets of existing columns, it’s often useful to add new columns that are functions of existing columns. That’s the job of mutate().
mutate() always adds new columns at the end of your dataset. When you’re in RStudio use View() to see all columns.

dplyr::mutate(tehsil, diff = Pop2017-Pop1998)

## # A tibble: 543 x 7
##    Province Division   District     Tehsil          Pop1998 Pop2017   diff
##    <chr>    <chr>      <chr>        <chr>             <dbl>   <dbl>  <dbl>
##  1 Punjab   Bahawalpur Bahawalpur   Hasilpur         317513  456006 138493
##  2 Punjab   Bahawalpur Bahawalpur   Khairpur Tamew…  183903  262628  78725
##  3 Punjab   Bahawalpur Bahawalpur   Yazman           168950  262175  93225
##  4 Punjab   Bahawalpur Bahawalpur   Ahmadpur East    718297 1078683 360386
##  5 Punjab   Bahawalpur Bahawalpur   Bahawalpur City  419542  681696 262154
##  6 Punjab   Bahawalpur Bahawalpur   Bahawalpur Sad…  387038  574950 187912
##  7 Punjab   Bahawalpur Bahawalnagar Bahawalnagar     541553  815143 273590
##  8 Punjab   Bahawalpur Bahawalnagar Chishtian        498270  691221 192951
##  9 Punjab   Bahawalpur Bahawalnagar Haroonabad       381767  525598 143831
## 10 Punjab   Bahawalpur Bahawalnagar Fort Abbas        92777  153444  60667
## # ... with 533 more rows

dplyr::mutate(tehsil, diff = Pop2017-Pop1998, add = Pop2017+Pop1998)

## # A tibble: 543 x 8
##    Province Division   District     Tehsil   Pop1998 Pop2017   diff    add
##    <chr>    <chr>      <chr>        <chr>      <dbl>   <dbl>  <dbl>  <dbl>
##  1 Punjab   Bahawalpur Bahawalpur   Hasilpur  317513  456006 138493 7.74e5
##  2 Punjab   Bahawalpur Bahawalpur   Khairpu…  183903  262628  78725 4.47e5
##  3 Punjab   Bahawalpur Bahawalpur   Yazman    168950  262175  93225 4.31e5
##  4 Punjab   Bahawalpur Bahawalpur   Ahmadpu…  718297 1078683 360386 1.80e6
##  5 Punjab   Bahawalpur Bahawalpur   Bahawal…  419542  681696 262154 1.10e6
##  6 Punjab   Bahawalpur Bahawalpur   Bahawal…  387038  574950 187912 9.62e5
##  7 Punjab   Bahawalpur Bahawalnagar Bahawal…  541553  815143 273590 1.36e6
##  8 Punjab   Bahawalpur Bahawalnagar Chishti…  498270  691221 192951 1.19e6
##  9 Punjab   Bahawalpur Bahawalnagar Haroona…  381767  525598 143831 9.07e5
## 10 Punjab   Bahawalpur Bahawalnagar Fort Ab…   92777  153444  60667 2.46e5
## # ... with 533 more rows

newData<-dplyr::mutate(tehsil, new = ifelse(Province == "Punjab", 1,
                            ifelse(Province == "Sindh",2,3)))
newData

## # A tibble: 543 x 7
##    Province Division   District     Tehsil           Pop1998 Pop2017   new
##    <chr>    <chr>      <chr>        <chr>              <dbl>   <dbl> <dbl>
##  1 Punjab   Bahawalpur Bahawalpur   Hasilpur          317513  456006     1
##  2 Punjab   Bahawalpur Bahawalpur   Khairpur Tamewa…  183903  262628     1
##  3 Punjab   Bahawalpur Bahawalpur   Yazman            168950  262175     1
##  4 Punjab   Bahawalpur Bahawalpur   Ahmadpur East     718297 1078683     1
##  5 Punjab   Bahawalpur Bahawalpur   Bahawalpur City   419542  681696     1
##  6 Punjab   Bahawalpur Bahawalpur   Bahawalpur Sadd…  387038  574950     1
##  7 Punjab   Bahawalpur Bahawalnagar Bahawalnagar      541553  815143     1
##  8 Punjab   Bahawalpur Bahawalnagar Chishtian         498270  691221     1
##  9 Punjab   Bahawalpur Bahawalnagar Haroonabad        381767  525598     1
## 10 Punjab   Bahawalpur Bahawalnagar Fort Abbas         92777  153444     1
## # ... with 533 more rows
…
