Bioinformatics with R | Muhammad Yaseen
…
df4

# A tibble: 38 x 2
   genevalue tumortype
       <dbl> <chr>    
 1      2.11 ALL      
 2      1.52 ALL      
 3      1.96 ALL      
 4      2.34 ALL      
 5      1.85 ALL      
 6      1.99 ALL      
 7      2.07 ALL      
 8      1.82 ALL      
 9      2.18 ALL      
10      1.81 ALL      
# ... with 28 more rows
…
